…
Applications
------------

Simulating a beverage sensor that monitors the level of coffee, tea, and water available. First, we'll list the inputs currently configured.

``` r
library(emoncmsr)
suppressPackageStartupMessages(library(tidyverse))  # use the tidyverse

# Inputs
list_inputs()
```

    ## # A tibble: 28 x 7
    ##       id  nodeid   name                 description
    ##  * <chr>   <chr>  <chr>                       <chr>
    ##  1     0 emonth5   rssi                            
    ##  2     1 emontx1 power1               House Power 1
    ##  3     2 emontx1 power2               House Power 2
    ##  4     3 emontx1 power3 Office Branch Circuit Power
    ##  5     5 emontx1   vrms                            
    ##  6     6 emontx1  temp1               Basement Temp
    ##  7     7 emontx1  temp2                            
    ##  8     8 emontx1  temp3                            
    ##  9     9 emontx1  temp4                            
    ## 10    10 emontx1  temp5                            
    ## # ... with 18 more rows, and 3 more variables: processList <chr>,
    ## #   time <int>, value <dbl>
…
